%YAML 1.1
%TAG !u! tag:unity3d.com,2011:
--- !u!1001 &655099507131345579
PrefabInstance:
  m_ObjectHideFlags: 0
  serializedVersion: 2
  m_Modification:
    m_TransformParent: {fileID: 0}
    m_Modifications:
    - target: {fileID: 52731009329242453, guid: 3d46da9ef751f3d4fb674566ef5f88e0, type: 3}
      propertyPath: m_LocalPosition.x
      value: 0
      objectReference: {fileID: 0}
    - target: {fileID: 52731009329242453, guid: 3d46da9ef751f3d4fb674566ef5f88e0, type: 3}
      propertyPath: m_LocalPosition.y
      value: 0
      objectReference: {fileID: 0}
    - target: {fileID: 52731009329242453, guid: 3d46da9ef751f3d4fb674566ef5f88e0, type: 3}
      propertyPath: m_LocalPosition.z
      value: -654.5791
      objectReference: {fileID: 0}
    - target: {fileID: 52731009329242453, guid: 3d46da9ef751f3d4fb674566ef5f88e0, type: 3}
      propertyPath: m_LocalRotation.x
      value: -0
      objectReference: {fileID: 0}
    - target: {fileID: 52731009329242453, guid: 3d46da9ef751f3d4fb674566ef5f88e0, type: 3}
      propertyPath: m_LocalRotation.y
      value: -0
      objectReference: {fileID: 0}
    - target: {fileID: 52731009329242453, guid: 3d46da9ef751f3d4fb674566ef5f88e0, type: 3}
      propertyPath: m_LocalRotation.z
      value: -0
      objectReference: {fileID: 0}
    - target: {fileID: 52731009329242453, guid: 3d46da9ef751f3d4fb674566ef5f88e0, type: 3}
      propertyPath: m_LocalRotation.w
      value: 1
      objectReference: {fileID: 0}
    - target: {fileID: 52731009329242453, guid: 3d46da9ef751f3d4fb674566ef5f88e0, type: 3}
      propertyPath: m_RootOrder
      value: 0
      objectReference: {fileID: 0}
    - target: {fileID: 52731009329242453, guid: 3d46da9ef751f3d4fb674566ef5f88e0, type: 3}
      propertyPath: m_LocalEulerAnglesHint.x
      value: 0
      objectReference: {fileID: 0}
    - target: {fileID: 52731009329242453, guid: 3d46da9ef751f3d4fb674566ef5f88e0, type: 3}
      propertyPath: m_LocalEulerAnglesHint.y
      value: 0
      objectReference: {fileID: 0}
    - target: {fileID: 52731009329242453, guid: 3d46da9ef751f3d4fb674566ef5f88e0, type: 3}
      propertyPath: m_LocalEulerAnglesHint.z
      value: 0
      objectReference: {fileID: 0}
    - target: {fileID: 52731009329242453, guid: 3d46da9ef751f3d4fb674566ef5f88e0, type: 3}
      propertyPath: m_AnchoredPosition.x
      value: 50
      objectReference: {fileID: 0}
    - target: {fileID: 52731009329242453, guid: 3d46da9ef751f3d4fb674566ef5f88e0, type: 3}
      propertyPath: m_AnchoredPosition.y
      value: -412.25
      objectReference: {fileID: 0}
    - target: {fileID: 52731009329242453, guid: 3d46da9ef751f3d4fb674566ef5f88e0, type: 3}
      propertyPath: m_SizeDelta.x
      value: 100
      objectReference: {fileID: 0}
    - target: {fileID: 52731009329242453, guid: 3d46da9ef751f3d4fb674566ef5f88e0, type: 3}
      propertyPath: m_SizeDelta.y
      value: 100
      objectReference: {fileID: 0}
    - target: {fileID: 52731009329242453, guid: 3d46da9ef751f3d4fb674566ef5f88e0, type: 3}
      propertyPath: m_AnchorMin.x
      value: 0
      objectReference: {fileID: 0}
    - target: {fileID: 52731009329242453, guid: 3d46da9ef751f3d4fb674566ef5f88e0, type: 3}
      propertyPath: m_AnchorMin.y
      value: 1
      objectReference: {fileID: 0}
    - target: {fileID: 52731009329242453, guid: 3d46da9ef751f3d4fb674566ef5f88e0, type: 3}
      propertyPath: m_AnchorMax.x
      value: 0
      objectReference: {fileID: 0}
    - target: {fileID: 52731009329242453, guid: 3d46da9ef751f3d4fb674566ef5f88e0, type: 3}
      propertyPath: m_AnchorMax.y
      value: 1
      objectReference: {fileID: 0}
    - target: {fileID: 52731009329242453, guid: 3d46da9ef751f3d4fb674566ef5f88e0, type: 3}
      propertyPath: m_Pivot.x
      value: 0.5
      objectReference: {fileID: 0}
    - target: {fileID: 52731009329242453, guid: 3d46da9ef751f3d4fb674566ef5f88e0, type: 3}
      propertyPath: m_Pivot.y
      value: 0.5
      objectReference: {fileID: 0}
    - target: {fileID: 1936876303732827911, guid: 3d46da9ef751f3d4fb674566ef5f88e0, type: 3}
      propertyPath: m_Name
      value: Resource3
      objectReference: {fileID: 0}
    - target: {fileID: 6977405313404879430, guid: 3d46da9ef751f3d4fb674566ef5f88e0, type: 3}
      propertyPath: m_AnchorMin.y
      value: 1
      objectReference: {fileID: 0}
    - target: {fileID: 6977405313404879430, guid: 3d46da9ef751f3d4fb674566ef5f88e0, type: 3}
      propertyPath: m_AnchorMax.y
      value: 1
      objectReference: {fileID: 0}
    m_RemovedComponents: []
  m_SourcePrefab: {fileID: 100100000, guid: 3d46da9ef751f3d4fb674566ef5f88e0, type: 3}
